<?xml version="1.0" encoding="UTF-8" standalone="no"?>
<!DOCTYPE svg PUBLIC "-//W3C//DTD SVG 1.1//EN" "http://www.w3.org/Graphics/SVG/1.1/DTD/svg11.dtd">
<svg version="1.1" id="Layer_1" xmlns="http://www.w3.org/2000/svg" xmlns:xlink="http://www.w3.org/1999/xlink" x="0px" y="0px" width="26px" height="14px" viewBox="0 0 26 14" enable-background="new 0 0 26 14" xml:space="preserve">  <image id="image0" width="26" height="14" x="0" y="0"
    xlink:href="data:image/png;base64,iVBORw0KGgoAAAANSUhEUgAAABoAAAAOCAQAAACbBMTIAAAABGdBTUEAALGPC/xhBQAAACBjSFJN
AAB6JgAAgIQAAPoAAACA6AAAdTAAAOpgAAA6mAAAF3CculE8AAAAAmJLR0QA/4ePzL8AAAAHdElN
RQfiBRgJHDebDiP0AAAAyElEQVQoz53SsWpCMRgG0D8qIg4+g5PQTi4OF5zayfdydLVbuzk6Okg7
tW/gG7g4OEgLIrj0OLQIt+ZW2mQJ+XICIV8Sfx+1ymQc48pMbiYTMJFyeZ5McXTEQ45dkrpHHIyM
HPCkfg01zLB3J4R7e8w0fkNNc7wbnneGPjDXrEItC+wMShcN7LDQyqG2Z2z1L17Zt8WL9k/U8YqN
m+wX3NrgTaeMlljrZUkIPWssy6iw0q0kIXStFF/rdO5eims1rMXn99H/FPYEOB07j3GsT6MAAAAl
dEVYdGRhdGU6Y3JlYXRlADIwMTgtMDUtMjRUMDk6Mjg6NTAtMDc6MDAy/Q4oAAAAJXRFWHRkYXRl
Om1vZGlmeQAyMDE4LTA1LTI0VDA5OjI4OjU1LTA3OjAwEZiZMwAAABl0RVh0U29mdHdhcmUAQWRv
YmUgSW1hZ2VSZWFkeXHJZTwAAAAASUVORK5CYII=" />
</svg>
