<svg xmlns="http://www.w3.org/2000/svg" width="30" height="35" viewBox="0 0 28 33">
  <metadata><?xpacket begin="﻿" id="W5M0MpCehiHzreSzNTczkc9d"?>
<x:xmpmeta xmlns:x="adobe:ns:meta/" x:xmptk="Adobe XMP Core 5.6-c138 79.159824, 2016/09/14-01:09:01        ">
   <rdf:RDF xmlns:rdf="http://www.w3.org/1999/02/22-rdf-syntax-ns#">
      <rdf:Description rdf:about=""/>
   </rdf:RDF>
</x:xmpmeta>
<?xpacket end="w"?></metadata>
<defs>
    <style>
      .cls-1 {
        fill: #f17e7c;
        fill-rule: evenodd;
      }
    </style>
  </defs>
  <path id="like" class="cls-1" d="M719.078,45.672c-0.364,1.541-1.556,3.724-3.511,3.926L702.18,50.987a4.122,4.122,0,0,1-1.68-.17l-0.578.169s-1.916-.927-1.916-2.353V33.523a2.166,2.166,0,0,1,.124-0.589,2.324,2.324,0,0,1,.183-0.426c1.409-2.931,7.355-7.609,7.355-10.627,0-2.269-.864-3.881,1.916-3.881s3.831,3.894,3.831,5.821-1.915,5.821-1.915,5.821h7.982a3.526,3.526,0,0,1,3.511,3.562S719.441,44.132,719.078,45.672ZM693,32h2v18.99h-2V32Z" transform="translate(-693 -18)"/>
</svg>
