<svg id="Группа_1" data-name="Группа 1" xmlns="http://www.w3.org/2000/svg" width="32" height="32" viewBox="0 0 32 32">
  <metadata><?xpacket begin="﻿" id="W5M0MpCehiHzreSzNTczkc9d"?>
<x:xmpmeta xmlns:x="adobe:ns:meta/" x:xmptk="Adobe XMP Core 5.6-c138 79.159824, 2016/09/14-01:09:01        ">
   <rdf:RDF xmlns:rdf="http://www.w3.org/1999/02/22-rdf-syntax-ns#">
      <rdf:Description rdf:about=""/>
   </rdf:RDF>
</x:xmpmeta>
<?xpacket end="w"?></metadata>
<defs>
    <style>
      .cls-1 {
        font-size: 24px;
        fill: #da558a;
        font-family: Roboto;
      }

      .cls-2 {
        fill: none;
        stroke: #da558a;
        stroke-width: 2px;
      }
    </style>
  </defs>
  <text id="_" data-name="?" class="cls-1" x="9.853" y="25.05">?</text>
  <circle id="elips" class="cls-2" cx="16" cy="16" r="15"/>
</svg>
