<svg xmlns="http://www.w3.org/2000/svg" xmlns:xlink="http://www.w3.org/1999/xlink" preserveAspectRatio="xMidYMid" width="64" height="64" viewBox="0 0 64 64">
  <defs>
    <style>
      .cls-1 {
        fill: #fff;
        fill-rule: evenodd;
      }
    </style>
  </defs>
  <path d="M6.149,11.051 L11.051,6.149 L57.851,52.949 L52.949,57.851 L6.149,11.051 Z" class="cls-1"/>
  <path d="M57.987,10.942 L53.058,6.013 L6.013,53.058 L10.942,57.987 L57.987,10.942 Z" class="cls-1"/>
</svg>
