<?xml version="1.0" encoding="UTF-8" standalone="no"?>
<!DOCTYPE svg PUBLIC "-//W3C//DTD SVG 1.1//EN" "http://www.w3.org/Graphics/SVG/1.1/DTD/svg11.dtd">
<svg version="1.1" id="Layer_1" xmlns="http://www.w3.org/2000/svg" xmlns:xlink="http://www.w3.org/1999/xlink" x="0px" y="0px" width="35px" height="32px" viewBox="0 0 35 32" enable-background="new 0 0 35 32" xml:space="preserve">  <image id="image0" width="35" height="32" x="0" y="0"
    xlink:href="data:image/png;base64,iVBORw0KGgoAAAANSUhEUgAAACMAAAAgCAMAAACvkzHFAAAABGdBTUEAALGPC/xhBQAAACBjSFJN
AAB6JgAAgIQAAPoAAACA6AAAdTAAAOpgAAA6mAAAF3CculE8AAAAgVBMVEX///9ohdlohdlohdlo
hdlohdlohdlohdlohdlohdlohdlohdlohdlohdlohdlohdlohdlohdlohdlohdlohdlohdlohdlo
hdlohdlohdlohdlohdlohdlohdlohdlohdlohdlohdlohdlohdlohdlohdlohdlohdlohdlohdn/
//82z0HIAAAAKXRSTlMAAAh+2/zDet9AA9lF+gk6/nhSW/k/luoksRUKyPAtc0JOfDt74MWA3CbG
kXoAAAABYktHRACIBR1IAAAAB3RJTUUH4gUWAzQSYB+r/AAAAKJJREFUOMu908kSgjAQBFA6gihu
oLgguK/9/z9oaXkgSWmnPNjnVzWZyUwUBQWmEydsB3CN6dKJb1L2+hnsuGbAISDMiGNpnvV9Y/tP
ZqJNmhfSTPN8JmsVLOfKYMHl6ot5JasYr4VB3bCpPUMvVfaLCall9SXe/O59sxXz2bHcixkeEv0X
R+o/xQnaoGVCdjVk58+8yNsxV32DMLe7uuW/5QER+x6kGQ+yPQAAACV0RVh0ZGF0ZTpjcmVhdGUA
MjAxOC0wNS0yMlQwMzo1MjowMy0wNzowMBwikFkAAAAldEVYdGRhdGU6bW9kaWZ5ADIwMTgtMDUt
MjJUMDM6NTI6MTgtMDc6MDCj0nyBAAAAGXRFWHRTb2Z0d2FyZQBBZG9iZSBJbWFnZVJlYWR5ccll
PAAAAABJRU5ErkJggg==" />
</svg>
