<svg xmlns="http://www.w3.org/2000/svg" xmlns:xlink="http://www.w3.org/1999/xlink" preserveAspectRatio="xMidYMid" width="36" height="34" viewBox="0 0 36 34">
  <defs>
    <style>
      .cls-1 {
        fill: #6885d9;
      }
    </style>
  </defs>
  <rect x="2" y="5" width="32" height="2" class="cls-1"/>
  <rect x="2" y="16" width="32" height="2" class="cls-1"/>
  <rect x="2" y="27" width="32" height="2" class="cls-1"/>
</svg>
